127.0.0.1 - - [24/Feb/2012:00:51:41 +0100] "GET / HTTP/1.1" 404 955
127.0.0.1 - - [24/Feb/2012:00:51:42 +0100] "GET /poodle/DefaultPage HTTP/1.1" 200 304
127.0.0.1 - - [24/Feb/2012:00:51:45 +0100] "POST /poodle/DefaultPage HTTP/1.1" 200 19
127.0.0.1 - - [24/Feb/2012:00:52:08 +0100] "POST /poodle/DefaultPage HTTP/1.1" 200 392
127.0.0.1 - - [24/Feb/2012:00:52:18 +0100] "GET /poodle/DefaultPage?nickname=nickname&optionsid=1&pollid=17&vote=vote HTTP/1.1" 200 304
127.0.0.1 - - [24/Feb/2012:00:55:26 +0100] "GET / HTTP/1.1" 404 955
127.0.0.1 - - [24/Feb/2012:00:55:27 +0100] "GET /poodle/DefaultPage HTTP/1.1" 200 304
127.0.0.1 - - [24/Feb/2012:00:55:32 +0100] "POST /poodle/DefaultPage HTTP/1.1" 200 388
127.0.0.1 - - [24/Feb/2012:00:55:47 +0100] "GET /poodle/DefaultPage?nickname=nickname&optionsid=6&pollid=17&vote=vote HTTP/1.1" 200 304
127.0.0.1 - - [24/Feb/2012:01:01:52 +0100] "GET / HTTP/1.1" 404 955
127.0.0.1 - - [24/Feb/2012:01:01:53 +0100] "GET /poodle/DefaultPage HTTP/1.1" 200 304
127.0.0.1 - - [24/Feb/2012:01:01:58 +0100] "POST /poodle/DefaultPage HTTP/1.1" 200 389
127.0.0.1 - - [24/Feb/2012:01:02:05 +0100] "GET /poodle/DefaultPage?nickname=nickname&optionsid=9&pollid=17&vote=vote HTTP/1.1" 200 304
127.0.0.1 - - [24/Feb/2012:01:02:44 +0100] "GET / HTTP/1.1" 404 955
127.0.0.1 - - [24/Feb/2012:01:02:44 +0100] "GET /poodle/DefaultPage HTTP/1.1" 200 304
127.0.0.1 - - [24/Feb/2012:01:02:48 +0100] "POST /poodle/DefaultPage HTTP/1.1" 200 424
127.0.0.1 - - [24/Feb/2012:01:02:52 +0100] "POST /poodle/DefaultPage HTTP/1.1" 500 1346
127.0.0.1 - - [24/Feb/2012:01:03:51 +0100] "GET / HTTP/1.1" 404 955
127.0.0.1 - - [24/Feb/2012:01:03:51 +0100] "GET /poodle/DefaultPage HTTP/1.1" 200 304
127.0.0.1 - - [24/Feb/2012:01:03:52 +0100] "POST /poodle/DefaultPage HTTP/1.1" 200 558
127.0.0.1 - - [24/Feb/2012:01:04:00 +0100] "POST /poodle/DefaultPage HTTP/1.1" 200 423
127.0.0.1 - - [24/Feb/2012:01:04:07 +0100] "POST /poodle/DefaultPage HTTP/1.1" 200 -
127.0.0.1 - - [24/Feb/2012:01:04:40 +0100] "GET /poodle/DefaultPage HTTP/1.1" 200 304
127.0.0.1 - - [24/Feb/2012:01:04:44 +0100] "POST /poodle/DefaultPage HTTP/1.1" 200 423
127.0.0.1 - - [24/Feb/2012:01:04:48 +0100] "POST /poodle/DefaultPage HTTP/1.1" 200 -
127.0.0.1 - - [24/Feb/2012:11:14:00 +0100] "GET / HTTP/1.1" 404 955
127.0.0.1 - - [24/Feb/2012:11:14:01 +0100] "GET /poodle/DefaultPage HTTP/1.1" 200 304
127.0.0.1 - - [24/Feb/2012:11:14:04 +0100] "POST /poodle/DefaultPage HTTP/1.1" 200 558
127.0.0.1 - - [24/Feb/2012:11:14:15 +0100] "POST /poodle/DefaultPage HTTP/1.1" 200 304
127.0.0.1 - - [24/Feb/2012:11:15:32 +0100] "GET /poodle/DefaultPage HTTP/1.1" 200 304
127.0.0.1 - - [24/Feb/2012:11:15:38 +0100] "POST /poodle/DefaultPage HTTP/1.1" 200 415
127.0.0.1 - - [24/Feb/2012:11:15:51 +0100] "POST /poodle/DefaultPage HTTP/1.1" 200 -
