INDEX VERSION 1.126+F:\impl\.metadata\.plugins\org.eclipse.jdt.core
1373218855.index
2949574674.index
391413881.index
3130671349.index
2052608432.index
1517942518.index
172860862.index
3616094749.index
2201381797.index
2059279401.index
2701236381.index
3171437114.index
2067475569.index
3129486095.index
3372031177.index
1684760434.index
2974975029.index
1575879547.index
1600214533.index
3681859078.index
828669192.index
951684619.index
738946997.index
396057921.index
1939680049.index
2802818277.index
3242870583.index
3840149199.index
708587776.index
3677732962.index
2071010463.index
1028228378.index
541083205.index
1722873883.index
