Name;Kinds;Description;Source
U!{login};Association, <<connection>>;enter description here;R5;
(R7);Class, <<Requirement>>;enter description here;myUMLModel;
(F2);Class, <<Fact>>;enter description here;myUMLModel;
R5_login;Class;enter description here;Interaction;
Webpage;Class, <<LexicalDomain>>;enter description here;main_context_diagram;
(R4);Class, <<Requirement>>;enter description here;myUMLModel;
M!{create};Association;enter description here;R3;
(R5);Class, <<Requirement>>;user can login;myUMLModel;
(A3);Class, <<Assumption>>;enter description here;myUMLModel;
DD!{delete_poll};Association, <<connection>>;enter description here;main_context_diagram;
(R6);Class, <<Requirement>>;enter description here;myUMLModel;
R2_edit_poll;Class;enter description here;Interaction;
browse_polls_machine;Class, <<Machine>>;enter description here;R6;
M!{create_user,set_user_status,get_login_data}UDB!{set_user_status};Association, <<connection>>;enter description here;main_context_diagram;
create_poll_machine;Class, <<Machine>>;enter description here;R1;
R6_browse_polls;Class;enter description here;Interaction;
M!{create_user};Association, <<connection>>;enter description here;R4;
(A2);Class, <<Assumption>>;enter description here;myUMLModel;
(R3);Class, <<Requirement>>;enter description here;myUMLModel;
R3_vote;Class;enter description here;Interaction;
M!{edit_poll};Association, <<connection>>;enter description here;R2;
U!{place_vote};Association;enter description here;R3;
(A1);Class, <<Assumption>>;enter description here;myUMLModel;
A_poodle_poll;Association, <<sql>>;enter description here;technical_context_diagram;
registered_user;Class, <<BiddableDomain>>;enter description here;main_context_diagram;
(F3);Class, <<Fact>>;enter description here;myUMLModel;
edit_poll_machine;Class, <<Machine>>;enter description here;R2;
A_WebServer_due_date;Association, <<api>>;enter description here;technical_context_diagram;
M!{show_poll,show_poll_list};Association, <<connection>>;enter description here;main_context_diagram;
A_WebServer_statistics;Association, <<api>>;enter description here;technical_context_diagram;
poll;Class, <<LexicalDomain>>;enter description here;main_context_diagram;
userdb;Class, <<LexicalDomain>>;enter description here;main_context_diagram;
DD!{destroy_poll};Association, <<connection>>;enter description here;R7;
PC!{edit_poll};Association, <<connection>>;enter description here;main_context_diagram;
M!{destroy_poll};Association, <<connection>>;enter description here;R7;
due_date;Class, <<LexicalDomain>>;enter description here;main_context_diagram;
M!{place_vote};Association;enter description here;R3;
destroy_poll_machine;Class, <<Machine>>;enter description here;R7;
A_user_Webpage;Association, <<gui>>;enter description here;technical_context_diagram;
R4_register;Class;enter description here;Interaction;
(R2);Class, <<Requirement>>;enter description here;myUMLModel;
A_WebServer_browse_polls_machine;Association, <<api>>;enter description here;technical_context_diagram;
poll_creator;Class, <<BiddableDomain>>;enter description here;main_context_diagram;
(F1);Class, <<Fact>>;enter description here;myUMLModel;
get_poll_machine;Class, <<Machine>>;enter description here;R8;
histogram;Class, <<LexicalDomain>>;enter description here;main_context_diagram;
M!{create_poll};Association, <<connection>>;enter description here;R1;
A_WebServer_poll;Association, <<api>>;enter description here;technical_context_diagram;
M!{show_poll_list};Association, <<connection>>;enter description here;R6;
poodle;Class, <<Machine>>;enter description here;main_context_diagram;
U!{show_poll};Association, <<connection>>;enter description here;R8;
login_machine;Class, <<Machine>>;enter description here;R5;
M!{get};Association, <<connection>>;enter description here;R6, R8;
M!{get_login_information}UDB!{set_user_status};Association, <<connection>>;enter description here;R5;
M!{created_live};Association, <<connection>>;enter description here;main_context_diagram;
U!{create_poll};Association, <<connection>>;enter description here;R1;
M!{show_polls};Association, <<connection>>;enter description here;R8;
vote;Class, <<LexicalDomain>>;enter description here;main_context_diagram;
M!{create,place_vote,get};Association, <<connection>>;enter description here;main_context_diagram;
PE!{edit_poll};Association, <<connection>>;enter description here;R2;
M!{create};Association, <<connection>>;enter description here;main_context_diagram;
A_Webpage_WebServer;Association, <<http>>;enter description here;technical_context_diagram;
U!{create_poll,vote,register,login,publish_poll};Association, <<connection>>;enter description here;main_context_diagram;
M!{create_daily};Association, <<connection>>;enter description here;main_context_diagram;
vote_machine;Class, <<Machine>>;enter description here;R3;
A_poodle_vote;Association, <<sql>>;enter description here;technical_context_diagram;
R7_destroy_poll;Class;enter description here;Interaction;
U!{register};Association, <<connection>>;enter description here;R4;
A_WebServer_vote;Association, <<api>>;enter description here;technical_context_diagram;
A_browse_polls_machine_poodle;Association, <<api>>;enter description here;technical_context_diagram;
WebServer;Class, <<ConnectionDomain>>;enter description here;technical_context_diagram;
R1_create_poll;Class;enter description here;Interaction;
(R1);Class, <<Requirement>>;enter description here;myUMLModel;
R8_show_poll;Class;enter description here;Interaction;
PO!{edit_poll};Association, <<connection>>;enter description here;R2;
(R8);Class, <<Requirement>>;enter description here;myUMLModel;
register_machine;Class, <<Machine>>;enter description here;R4;
statistics;Class, <<LexicalDomain>>;enter description here;main_context_diagram;
user;Class, <<BiddableDomain>>;enter description here;main_context_diagram;
(R5);Class;enter description here;myUMLModel;
RU!{browse_polls};Association, <<connection>>;enter description here;main_context_diagram, R6;
